<svg width="20" height="20" viewBox="0 0 20 20" fill="none" xmlns="http://www.w3.org/2000/svg">
<path d="M10 10C12.75 10 15 7.75 15 5C15 2.25 12.75 0 10 0C7.25 0 5 2.25 5 5C5 7.75 7.25 10 10 10ZM10 12.5C6.625 12.5 0 14.125 0 17.5V20H20V17.5C20 14.125 13.375 12.5 10 12.5Z" fill="white"/>
</svg>
