<svg width="16" height="16" viewBox="0 0 16 16" fill="none" xmlns="http://www.w3.org/2000/svg">
<path d="M12.7998 12H3.1998V10.4H12.7998V12ZM12.7998 8.8H3.1998V7.2H12.7998V8.8ZM12.7998 5.6H3.1998V4H12.7998V5.6ZM0.799805 16L1.9998 14.8L3.1998 16L4.3998 14.8L5.5998 16L6.7998 14.8L7.9998 16L9.1998 14.8L10.3998 16L11.5998 14.8L12.7998 16L13.9998 14.8L15.1998 16V0L13.9998 1.2L12.7998 0L11.5998 1.2L10.3998 0L9.1998 1.2L7.9998 0L6.7998 1.2L5.5998 0L4.3998 1.2L3.1998 0L1.9998 1.2L0.799805 0V16Z" fill="#6D7D93"/>
</svg>
